label,id
128_128_128_128_1_0_0_1_0_0_0_0_0_0_0_0,36
128_128_128_128_1_0_0_0_0_1_0_0_0_0_0_0,34
128_128_128_128_1_0_0_1_0_0_0_1_0_0_0_0,37
128_128_128_128_1_0_0_1_1_0_0_0_0_0_0_0,40
128_128_105_97_0_0_0_0_0_0_0_0_0_0_0_0,1
128_128_32_118_0_0_0_0_0_0_0_0_0_0_0_0,48
128_128_128_128_0_0_1_0_1_0_0_0_0_0_0_0,18
135_128_128_128_0_0_0_0_0_0_0_0_0_0_0_0,55
133_128_128_128_0_0_0_0_0_0_0_0_0_0_0_0,54
128_128_128_128_0_1_1_0_0_0_1_0_0_0_0_0,29
128_128_128_128_0_1_0_0_0_0_0_0_0_0_0_0,19
128_128_128_128_0_0_0_0_1_0_1_0_0_0_0_0,7
128_128_128_128_0_1_0_0_0_0_0_1_0_0_0_0,20
128_128_128_128_0_0_0_0_1_0_0_0_0_0_0_0,6
128_128_128_128_0_1_0_0_0_1_0_0_0_0_0_0,22
128_128_128_128_0_0_1_0_0_0_0_1_0_0_0_0,15
128_128_128_128_0_0_0_0_0_0_1_0_0_0_0_0,4
128_128_128_128_0_0_0_0_0_0_0_1_0_0_0_0,3
128_128_128_128_0_0_0_1_1_0_0_0_0_0_0_0,13
128_128_128_128_0_0_0_1_0_0_0_0_0_0_0_0,8
129_128_128_128_0_0_0_0_0_0_0_0_0_0_0_0,53
128_128_88_128_0_0_0_0_0_0_0_0_0_0_0_0,49
128_128_128_128_0_0_0_0_0_0_0_0_0_0_0_0,2
128_128_29_27_0_0_0_0_0_0_0_0_0_0_0_0,47
128_67_128_128_0_0_0_0_0_0_0_0_0_0_0_0,52
128_128_128_128_0_1_1_0_0_1_0_0_0_0_0_0,30
128_128_128_128_0_0_0_1_0_1_0_0_0_0_0_0,11
128_128_128_128_0_0_1_0_0_0_1_0_0_0_0_0,16
128_128_128_128_0_0_0_1_0_1_0_1_0_0_0_0,12
128_221_128_128_0_0_0_0_0_0_0_0_0_0_0_0,51
128_128_128_128_0_0_0_1_0_0_0_1_0_0_0_0,9
128_128_128_128_0_0_1_0_0_1_0_0_0_0_0_0,17
128_128_128_128_0_1_0_1_1_0_0_0_0_0_0_0,27
128_128_128_128_1_0_0_0_1_0_0_0_0_0_0_0,35
128_128_128_128_1_0_0_0_0_0_0_0_0_0_0_0,32
128_128_128_128_1_0_1_0_0_0_0_0_0_0_0_0,42
128_128_128_128_1_0_1_0_0_1_0_0_0_0_0_0,44
128_128_128_128_0_1_0_1_0_0_0_0_0_0_0_0,24
128_128_128_128_1_0_1_0_0_0_1_0_0_0_0_0,43
128_128_128_128_1_0_0_1_1_0_1_0_0_0_0_0,41
128_128_128_128_0_1_1_0_1_0_0_0_0_0_0_0,31
128_128_128_128_0_0_0_1_0_0_1_0_0_0_0_0,10
128_128_128_128_0_1_0_1_0_1_0_0_0_0_0_0,26
128_128_128_128_1_0_0_0_0_0_1_0_0_0_0_0,33
128_128_128_128_0_0_1_0_0_0_0_0_0_0_0_0,14
128_128_128_128_0_1_0_0_1_0_0_0_0_0_0_0,23
128_128_128_139_0_0_0_0_1_0_0_0_0_0_0_0,46
128_128_128_128_0_1_0_0_0_0_1_0_0_0_0_0,21
128_128_128_128_1_0_0_1_0_1_0_0_0_0_0_0,39
128_128_128_128_0_1_1_0_0_0_0_0_0_0_0_0,28
128_128_92_68_0_0_0_0_0_0_0_0_0_0_0_0,50
128_128_128_128_0_1_0_1_0_0_1_0_0_0_0_0,25
128_116_128_128_1_0_0_0_0_0_0_0_0_0_0_0,0
128_128_128_128_1_0_0_1_0_0_1_0_0_0_0_0,38
128_128_128_128_0_0_0_0_0_1_0_0_0_0_0_0,5
128_128_128_128_1_0_1_0_1_0_0_0_0_0_0_0,45
