,0,1
0,"128,128,128,128,1,0,0,1,0,0,0,0,0,0,0,0",0
1,"128,128,128,128,1,0,0,1,0,0,0,0,0,0,0,0",0.045330047607421875
2,"128,128,128,128,1,0,0,1,0,0,0,0,0,0,0,0",0.04436802864074707
3,"128,128,128,128,1,0,0,1,0,0,0,0,0,0,0,0",0.04521679878234863
4,"128,128,128,128,1,0,0,1,0,0,0,0,0,0,0,0",0.044738054275512695
5,"128,128,128,128,1,0,0,1,0,0,0,0,0,0,0,0",0.04032588005065918
6,"128,128,128,128,1,0,0,1,0,0,0,0,0,0,0,0",0.04476809501647949
7,"128,128,128,128,1,0,0,0,0,0,0,0,0,0,0,0",0.045629024505615234
8,"128,128,128,128,0,0,0,0,0,0,0,0,0,0,0,0",0.043760061264038086
9,"128,128,128,128,0,0,1,0,0,0,0,0,0,0,0,0",0.04545402526855469
10,"128,128,128,128,0,0,1,0,0,0,0,0,0,0,0,0",0.04557204246520996
11,"128,128,128,128,0,1,1,0,0,0,0,0,0,0,0,0",0.04543113708496094
12,"128,128,128,128,0,1,1,0,0,0,0,0,0,0,0,0",0.045001983642578125
13,"128,128,128,128,0,1,1,0,0,0,0,0,0,0,0,0",0.044441938400268555
14,"128,128,128,128,0,1,1,0,0,0,0,0,0,0,0,0",0.04705190658569336
15,"128,128,128,128,0,1,1,0,0,0,0,0,0,0,0,0",0.04531407356262207
16,"128,128,128,128,0,0,0,0,0,0,0,0,0,0,0,0",0.04360389709472656
17,"128,128,128,128,0,0,0,0,0,0,0,0,0,0,0,0",0.04499697685241699
18,"128,128,128,128,0,0,0,0,0,0,0,0,0,0,0,0",0.043711185455322266
19,"128,128,128,128,0,0,0,0,0,0,0,0,0,0,0,0",0.04399681091308594
20,"128,128,128,128,0,1,0,0,0,0,0,0,0,0,0,0",0.045202016830444336
21,"128,128,128,128,0,1,0,0,0,0,0,0,0,0,0,0",0.04488801956176758
22,"128,128,128,128,0,1,0,0,0,0,0,0,0,0,0,0",0.04485607147216797
23,"128,128,128,128,0,1,0,0,0,0,0,0,0,0,0,0",0.04465985298156738
24,"128,128,128,128,0,1,0,0,0,0,0,0,0,0,0,0",0.04311394691467285
25,"128,128,128,128,0,1,1,0,0,0,0,0,0,0,0,0",0.04541206359863281
26,"128,128,128,128,0,1,1,0,0,0,0,0,0,0,0,0",0.04365110397338867
27,"128,128,128,128,0,1,1,0,0,0,0,0,0,0,0,0",0.045233964920043945
28,"128,128,128,128,0,1,1,0,0,0,0,0,0,0,0,0",0.04286694526672363
29,"128,128,128,128,0,1,1,0,0,0,0,0,0,0,0,0",0.0448760986328125
30,"128,128,128,128,0,0,1,0,0,0,0,0,0,0,0,0",0.04107999801635742
31,"128,128,128,128,0,0,1,0,0,0,0,0,0,0,0,0",0.04614615440368652
32,"128,128,128,128,1,0,1,0,0,0,0,0,0,0,0,0",0.04528999328613281
33,"128,128,128,128,1,0,1,0,0,0,0,0,0,0,0,0",0.04550576210021973
34,"128,128,128,128,1,0,0,0,0,0,0,0,0,0,0,0",0.04495525360107422
35,"128,128,128,128,1,0,0,0,0,0,0,0,0,0,0,0",0.040509939193725586
36,"128,128,128,128,1,0,0,0,0,0,0,0,0,0,0,0",0.044888973236083984
37,"128,128,128,128,1,0,0,0,0,0,0,0,0,0,0,0",0.04514312744140625
38,"128,128,128,128,1,0,0,0,0,0,0,0,0,0,0,0",0.043845176696777344
39,"128,128,128,128,0,0,0,0,0,0,0,0,0,0,0,0",0.04524111747741699
40,"128,128,128,128,0,0,0,1,0,0,0,0,0,0,0,0",0.04517722129821777
41,"128,128,128,128,0,1,0,1,0,0,0,0,0,0,0,0",0.04373598098754883
42,"128,128,128,128,0,1,0,1,0,0,0,0,0,0,0,0",0.04415011405944824
43,"128,128,128,128,0,1,0,1,0,0,0,0,0,0,0,0",0.04169797897338867
44,"128,128,128,128,0,1,0,1,0,0,0,0,0,0,0,0",0.04386305809020996
45,"128,128,128,128,0,1,0,1,0,0,0,0,0,0,0,0",0.044264793395996094
46,"128,128,128,128,0,1,0,1,0,0,0,0,0,0,0,0",0.04350399971008301
47,"128,128,128,128,0,1,0,0,0,0,0,0,0,0,0,0",0.04056096076965332
48,"128,128,128,128,0,1,0,0,0,0,0,0,0,0,0,0",0.044793128967285156
49,"128,128,128,128,0,1,0,0,0,0,0,0,0,0,0,0",0.04586911201477051
50,"128,128,128,128,0,1,0,0,0,0,0,0,0,0,0,0",0.0449371337890625
51,"128,128,128,128,0,1,0,0,0,0,0,0,0,0,0,0",0.04517197608947754
